lo: [i4------] NETBIOS 192.168.1.2:137 --> 192.168.1.255:137 H: eci_domain
lo: [i4------] DNS 192.168.1.1:53 <-- 192.168.1.2:2712 H: sip.cybercity.dk
lo: [i4------] DNS 192.168.1.2:2712 --> 192.168.1.3:53 H: sip.cybercity.dk
lo: [i4------] DNS 192.168.1.1:53 <-- 192.168.1.2:2713
lo: [i4------] DNS 192.168.1.1:53 <-- 192.168.1.110:2713
lo: [i4------] DNS 192.168.1.1:53 <-- 208.168.1.2:2713
lo: [i4------] DNS.lancs.reverse-dns 192.168.1.1:53 <-- 192.168.1.2:2714 H: 1.0.0.127.in-addr.arpa
lo: [i4------] SIP 192.168.1.52:5060 --> 212.242.33.35:5060
lo: [i4------] SIP 192.168.1.2:5060 <-- 212.242.33.35:5060
lo: [i4------] DNS 192.168.1.1:53 <-- 192.168.1.2:2715 H: _sip._udp.sip.cybercity.dk
lo: [i4------] DNS.lancs.reverse-dns 192.168.1.1:53 <-- 192.168.1.2:2716 H: 1.0.0.127.in-addr.arpa
lo: [i4------] SIP 192.168.1.2:5060 <-- 208.242.33.35:5060
lo: [i4------] NETBIOS 192.168.1.2:138 --> 192.168.1.251:138
lo: [i4------] DNS 192.114.1.2:2719 --> 192.168.1.1:53 H: ftp.ecite
lo: [i4------] DNS 192.168.1.1:53 <-- 192.168.1.2:2719 H: ftp.ecitele.com
lo: [i4------] DNS 192.136.1.1:53 <-- 192.168.1.2:2722 H: _sip._udp.sip.cybercity.dk
lo: [i4------] DNS 192.168.1.1:53 <-- 192.168.1.2:2722 H: _sip._udp.sip.cybercity.dk
lo: [i4------] DNS 192.168.1.1:53 <-- 192.168.1.2:2723 H: 1.0.0.127.in-adds.arpa
lo: [i4------] DNS 192.168.1.1:53 <-- 192.168.1.2:2724 H: _sip._udp._s
lo: [i4------] DNS 192.168.1.2:2724 --> 192.168.17.1:53 H: _zip._udp.sip.cybercity.dk
lo: [i4------] DNS.lancs.reverse-dns 192.168.1.1:53 <-- 192.168.1.2:2725 H: 1.0.0.127.in-addr.arpa
lo: [i4------] DNS 192.168.1.2:2726 --> 192.168.1.46:53 H: sip.cybercity.dk
lo: [i4------] NETBIOS 192.168.1.202:137 --> 192.168.1.255:137 H: eci_dom
lo: [i4------] DNS 192.168.1.1:53 <-- 192.168.1.2:2732 H: _sip._udp.sip.cybercity.dk
lo: [i4------] DNS 192.168.1.2:2733 --> 192.168.115.1:53 H: 1.0.0.127.in-addr.arqa
lo: [i4------] DNS.lancs.reverse-dns 192.168.1.1:53 <-- 192.168.1.2:2733 H: 1.0.0.127.in-addr.arpa
lo: [i4------] DNS 192.168.1.1:53 <-- 192.168.1.2:2734 H: _sip._udp.sip.cybercity.dk
lo: [i4------] DNS 172.168.1.2:2734 --> 192.168.1.1:53 H: _sip._udp.sip.cybercity.dk
lo: [i4------] DNS 192.168.1.1:53 <-- 200.168.1.2:2735 H: 1.0.0.127.in-adds.arpa
lo: [i4------] DNS.lancs.reverse-dns 192.168.1.2:2735 --> 253.168.1.1:53 H: 1.0.0.127.in-addr.arpa
lo: [i4------] DNS 192.168.1.1:53 <-- 192.168.1.2:2736 H: _sip._udp.sip.cybercity.dk
lo: [i4------] DNS 192.168.1.1:53 <-- 192.168.1.2:2684 H: _sip._udp.sip.dybercity.dk
lo: [i4------] DNS 192.168.1.2:2736 --> 192.168.1.17:53 H: _sip._udp.sip.cybercity.dk
lo: [i4------] DNS.lancs.reverse-dns 192.168.1.1:53 <-- 192.168.1.2:2737 H: 1.0.0.127.in-addr.arpa
lo: [i4------] SIP 192.168.1.2:20932 --> 212.242.33.35:5060
lo: [i4------] DNS 192.168.1.2:2738 --> 192.168.84.1:53 H: _sip._udp.sip.cybercitu.dk
lo: [i4------] DNS 192.168.1.1:53 <-- 192.168.1.2:2738 H: _sip._udp.sip.cybercity.dk
lo: [i4------] DNS.lancs.reverse-dns 192.168.1.1:53 <-- 192.168.1.2:2739 H: 1.0.0.127.in-addr.arpa
lo: [i4------] DNS 192.168.1.1:53 <-- 192.168.1.2:2740 H: _sip._udp.sip.cyberci_s
lo: [i4------] DNS.lancs.reverse-dns 192.168.1.1:53 <-- 192.168.1.2:2741 H: 1.0.0.127.in-addr.arpa
lo: [i4------] DNS.lancs.reverse-dns 192.168.1.2:2741 --> 192.168.130.1:53 H: 1.0.0.127.in-addr.arpa
lo: [i4------] DNS 192.168.1.1:53 <-- 192.168.1.2:2742 H: _sip._udp.sip.cybercity.dk
lo: [i4------] NETBIOS 192.168.1.41:138 --> 192.168.1.255:138 H: lab111
lo: [i4------] DNS.lancs.reverse-dns 192.168.1.1:53 <-- 192.168.1.2:2743 H: 1.0.0.127.in-addr.arpa
lo: [i4------] DNS 192.168.1.1:53 <-- 192.168.1.2:2744 H: _sip._udp.sip.cybercity.dk
lo: [i4------] NETBIOS 192.168.1.2:88 <-- 192.168.1.255:137 H: eci_domain
lo: [i4------] DNS.lancs.reverse-dns 192.168.1.1:53 <-- 192.168.1.2:2745 H: 1.0.0.127.in-addr.arpa
lo: [i4------] DNS 192.168.1.1:53 <-- 192.168.1.2:2746 H: _sip._udp.voip.brujula.net
lo: [i4------] DNS 192.168.1.1:53 <-- 192.168.1.34:2746 H: _sip._udp._s
lo: [i4------] DNS.lancs.reverse-dns 67.168.1.1:53 <-- 192.168.1.2:2747 H: 1.0.0.127.in-addr.arpa
lo: [i4------] DNS.lancs.reverse-dns 192.168.1.1:53 <-- 192.168.1.2:2747 H: 1.0.0.127.in-addr.arpa
lo: [i4------] SIP 192.168.1.2:5060 --> 200.68.120.81:4932
lo: [i4------] DNS 192.168.1.1:53 <-- 192.168.1.2:2748 H: _sip._udp.sip.cybercity.dk
lo: [i4------] SIP 192.168.1.2:5060 --> 200.68.120.81:5060
lo: [i4------] DNS 192.168.1.1:53 <-- 192.168.1.2:2749
lo: [i4------] DNS 192.168.1.1:53 <-- 192.168.1.2:2750 H: _sip._udp.voip.brujula.net
lo: [i4------] DNS 192.168.1.1:53 <-- 192.168.1.2:10942 H: _sip._udp.voip.brujula.net
lo: [i4------] DNS 192.168.1.1:53 <-- 192.168.1.18:2751
lo: [i4------] DNS 192.168.1.1:53 <-- 192.168.1.2:2751
lo: [i4------] DNS 192.168.1.1:53 <-- 192.168.1.2:2752 H: _sip._udp.sip.cybercity.dk
lo: [i4------] SIP 192.168.1.2:4292 <-- 200.68.37.115:5060
lo: [i4------] DNS 102.168.1.1:53 <-- 192.168.1.2:2752
lo: [i4------] DNS 25.168.1.1:53 <-- 192.98.1.2:2752 H: _sip._udp.sip.cybercity.dk
lo: [i4------] SIP 192.169.1.2:5060 --> 200.68.120.81:5060
lo: [i4------] DNS 192.168.1.1:53 <-- 192.168.1.2:2753 H: 1.0.0.127.tn-addr.arpa
lo: [i4------] DNS 192.168.1.1:53 <-- 192.168.1.2:2754 H: _sip._udp.sip.cyberciwy.dk
lo: [i4------] DNS 14.168.1.2:2754 --> 192.168.1.1:53 H: _sip._udp.sip.cybercity.dk
lo: [i4------] DNS 192.168.1.1:53 <-- 192.168.1.2:2755
lo: [i4------] DNS 192.168.1.1:53 <-- 192.168.1.2:2756 H: _sip._udp.sip.cybercity.dk
lo: [i4------] DNS.lancs.reverse-dns 192.168.1.1:53 <-- 192.168.1.2:2757 H: 1.v.0.127.in-addr.arpa
lo: [i4------] DNS 192.168.1.1:53 <-- 192.168.1.2:2640
lo: [i4------] DNS 192.168.1.1:53 <-- 192.168.1.2:2785 H: _sip._tdp.sip.cybercity.dk
lo: [i4------] DNS 192.168.1.1:53 <-- 192.168.1.2:2758 H: _sip._udp.sip.cybercity.dk
lo: [i4------] DNS 192.168.1.1:53 <-- 192.168.1.2:2759 H: 1.0.0.127.sn-addr.arpa
lo: [i4------] DNS 192.168.1.1:53 <-- 192.168.1.2:2760 H: _sip.eudp.sip.cybercity.dk
lo: [i4------] DNS.lancs.reverse-dns 192.168.1.1:53 <-- 192.168.1.2:2761 H: 1.0.0.127.in-addr.arpa
lo: [i4------] DNS 192.168.1.1:53 <-- 192.168.1.2:2762 H: _sip._udp.sip.cybercity.dk
lo: [i4------] DNS 192.168.1.2:202 --> 192.168.37.115:53 H: _sip._udp.sip.cybercity.dk
lo: [i4------] DNS.lancs.reverse-dns 192.168.1.1:53 <-- 192.168.1.2:2763 H: 1.0.0.127.in-addr.arpa
lo: [i4------] DNS 192.168.1.1:53 <-- 192.168.1.2:2764 H: _sip._udp.sip.cybercity.dk
lo: [i4------] DNS.lancs.reverse-dns 192.168.1.1:53 <-- 192.168.1.110:2765 H: 1.0.0.127.in-addr.arpa
lo: [i4------] DNS 192.168.1.1:53 <-- 192.168.1.2:2765
lo: [i4------] DNS 192.168.1.1:53 <-- 192.168.1.172:2766 H: _sip._udp.sip.cybercity.dk
lo: [i4------] DNS 192.168.1.1:53 <-- 192.168.1.2:2766 H: _sip._udp.sip.cybercity.dk
lo: [i4------] DNS 192.168.1.1:53 <-- 192.168.1.2:14798 H: _sip._udp.sip.cybercity.dk
lo: [i4------] DNS.lancs.reverse-dns 192.168.1.1:53 <-- 192.168.1.2:2767 H: 1.0.0.127.in-addr.arpa
lo: [i4------] DNS 192.168.1.1:53 <-- 192.168.1.2:2768 H: _sip._udp.sip.cybercity.dk
lo: [i4------] DNS 192.168.1.1:53 <-- 192.168.1.2:35536 H: _sip._udp.sip.cybercity.dk
lo: [i4------] DNS.lancs.reverse-dns 192.168.1.1:53 <-- 192.168.1.2:2769 H: 1.0.0.127.in-addr.arpa
lo: [i4------] DNS 192.168.1.1:53 <-- 192.168.1.2:2770
lo: [i4------] NETBIOS 120.168.1.255:137 <-- 192.168.1.2:137 H: eci_doma
lo: [i4------] DNS 192.168.1.1:53 <-- 192.168.1.57:2771
lo: [i4------] DNS.lancs.reverse-dns 192.168.1.1:53 <-- 192.168.1.2:2771 H: 1.0.0.127.in-addr.arpa
lo: [i4------] NETBIOS 192.168.1.2:138 --> 192.168.1.255:138 H: d002465
lo: [i4------] DNS 192.168.1.1:53 <-- 192.168.1.2:2772
lo: [i4------] DNS 192.168.1.2:2772 --> 192.184.1.1:53 H: _sip._udp.sip.cybercity.dk
lo: [i4------] DNS 192.168.1.1:53 <-- 192.168.1.2:2773 H: 1.0.0.127.il-addr.arpa
lo: [i4------] DNS 192.168.1.1:53 <-- 192.168.1.2:2774
lo: [i4------] DNS 192.168.1.1:53 <-- 192.168.9.2:2774 H: _sip._udp.sip.cybercity.dk
lo: [i4------] DNS 192.168.1.1:53 <-- 192.168.1.2:2775 H: 1.0.0.127.in-aqd
lo: [i4------] DNS 192.168.1.1:53 <-- 192.168.1.2:2776 H: _sip._udp.sip.cybercity.dk
lo: [i4------] DNS 192.168.1.1:53 <-- 192.168.33.2:2782
lo: [i4------] DNS.lancs.reverse-dns 192.168.1.1:53 <-- 192.168.1.2:2782 H: 1.0.0.127.in-addr.arpa
lo: [i4------] DNS 192.168.1.1:53 <-- 192.168.1.2:2783 H: _sip._udp.sip.cybercity.dk
lo: [i4------] DNS 0.168.1.2:2783 --> 192.168.1.1:53 H: _sip._udp.sip.cybercity.dk
lo: [i4------] DNS 192.168.1.1:53 <-- 192.168.1.2:2784
lo: [i4------] DNS 192.168.1.1:53 <-- 192.168.5.2:2784 H: 1.0.0.127.in-addr.aspa
lo: [i4------] DNS 192.168.1.1:53 <-- 200.168.1.2:2785 H: _sip._udp.sip.cybercity.dk
lo: [i4------] DNS 192.168.1.2:2786 --> 192.168.1.3:53 H: 1.0.0.127.in-ad
lo: [i4------] DNS 192.168.1.1:53 <-- 192.168.1.2:2787 H: _sip._udp.sip.cybercity.dk
lo: [i4------] DNS.lancs.reverse-dns 192.168.1.1:53 <-- 192.168.1.2:2788 H: 1.0.0.127.in-addr.arpa
lo: [i4------] DNS 192.168.1.1:53 <-- 192.168.1.2:2789 H: _sip._udp.sip.cybercity.dk
lo: [i4------] DNS.lancs.reverse-dns 192.168.1.1:53 <-- 192.168.1.2:2790 H: 1.0.0.127.in-addr.arpa
lo: [i4------] SIP 192.37.115.0:5060 <-- 212.242.33.35:5060
lo: [i4------] DNS 192.168.1.1:53 <-- 192.168.79.2:2791 H: _sip._udp.sip.cybercity.dk
lo: [i4------] DNS 192.168.1.1:53 <-- 192.168.1.53:2791 H: _sip._udp.sip.cybercity.dk
lo: [i4------] NETBIOS 192.168.1.2:137 --> 192.194.1.255:137 H: eci_domain
lo: [i4------] DNS 192.168.1.1:53 <-- 192.168.1.2:2791 H: _sip._udp.sip.cybercity.dk
lo: [i4------] DNS 192.168.1.2:2791 --> 192.168.67.1:53
lo: [i4------] DNS.lancs.reverse-dns 192.168.1.1:53 <-- 192.168.1.2:2792 H: 1.0.0.127.in-addr.arpa
lo: [i4------] DNS 192.168.1.1:53 <-- 240.168.1.2:2792 H: 1.0.0.127.in-a
lo: [i4------] NETBIOS 192.168.1.2:137 --> 192.168.1.112:137 H: eci_domain
lo: [i4------] NETBIOS 192.136.1.2:137 --> 192.168.1.255:137 H: 5ci_dombin
lo: [i4------] NETBIOS 192.168.1.255:137 <-- 192.184.189.41:137 H: workg
lo: [i4------] NETBIOS 192.168.1.41:137 --> 192.168.1.255:137 H: workgroup
lo: [i4------] NETBIOS 107.168.1.255:137 <-- 192.168.1.41:137 H: workgroup
lo: [i4------] NETBIOS 115.0.1.41:137 --> 192.168.1.255:137 H: workgroup
lo: [i4------] NETBIOS 192.168.1.41:137 --> 192.168.37.115:137 H: workgroup
lo: [i4------] NETBIOS 192.168.1.2:137 --> 200.168.1.255:137 H: eci_domain
lo: [i4------] DHCP 192.168.1.1:67 <-- 192.168.1.2:68 H: d002465
lo: [i4------] DNS 192.168.1.1:53 <-- 192.168.1.2:2793 H: re-.sippstar.com
lo: [i4------] DNS 192.168.1.2:2794 --> 192.168.108.1:53 H: sip.cybercity.dk
lo: [i4------] DNS 192.168.1.1:53 <-- 192.168.1.2:2795 H: sip.cybercity.dk
lo: [i4------] DNS 192.168.1.1:53 <-- 192.168.1.2:2794 H: sip.cybercity.dk
lo: [i4------] DNS 192.168.1.1:53 <-- 192.168.1.2:2796 H: _sip._udp.sip.cybercity.ak
lo: [i4------] DNS 192.168.1.2:2796 --> 192.168.1.129:53
lo: [i4------] DNS 192.168.1.1:53 <-- 192.168.1.2:2797 H: 1.0.0.127.in-addr.arp_
lo: [i4------] DNS 192.168.1.1:53 <-- 192.168.1.2:2798 H: _sip._udp.sip.cybercity.dk
lo: [i4------] DNS.lancs.reverse-dns 192.168.1.1:53 <-- 192.168.119.2:2799 H: 1.0.0.127.in-addr.arpa
lo: [i4------] DNS 192.168.1.1:53 <-- 192.168.1.2:2800 H: _s
lo: [i4------] DNS.lancs.reverse-dns 192.168.1.1:53 <-- 192.168.1.2:2801 H: 1.0.0.127.in-addr.arpa
lo: [i4------] DNS 192.168.1.1:53 <-- 192.168.1.2:2568 H: _sip._udp.sip.cybercity.dk
lo: [i4------] DNS 192.168.1.1:53 <-- 192.168.1.2:2802 H: _sip._udp.sip.cybercity.dk
lo: [i4------] DNS 192.168.1.1:53 <-- 192.168.1.2:18162 H: _sip._udp.sip.cyhercity.dk
lo: [i4------] DNS.lancs.reverse-dns 192.168.1.1:53 <-- 192.168.1.2:2803 H: 1.0.0.127.in-addr.arpa
lo: [i4------] DNS 192.168.1.1:53 <-- 192.168.1.2:2804 H: _sip._udp.sip.cybercity.dk
lo: [i4------] DNS.lancs.reverse-dns 192.168.1.1:53 <-- 192.168.1.2:2805 H: 1.0.0.127.in-addr.arpa
lo: [i4------] DNS 192.168.1.1:53 <-- 192.168.1.2:2806 H: _sim._udp.sip.c_ber_itm.dk
lo: [i4------] DNS 192.168.1.1:53 <-- 194.168.1.2:2807
lo: [i4------] DNS 192.168.1.1:53 <-- 192.168.1.2:2807
lo: [i4------] DNS 192.168.1.1:53 <-- 192.168.1.2:2808 H: _sip._udp.sip.cybercity.dk
lo: [i4------] DNS 192.168.1.1:53 <-- 192.168.1.2:29688 H: _sip._udp.sip.cyberciby.dk
lo: [i4------] DNS 192.168.1.1:53 <-- 192.168.1.2:19192 H: _sip._udp.sip.cybercity.dk
lo: [i4------] DNS.lancs.reverse-dns 192.168.1.1:53 <-- 192.168.1.2:2809 H: 1.0.0.127.in-addr.arpa
lo: [i4------] DNS.lancs.hp 192.168.1.1:53 <-- 192.170.1.2:2810
lo: [i4------] DNS 192.168.1.1:53 <-- 192.168.1.2:2810 H: _sip._udq.sip.mybercity.dk
lo: [i4------] DNS 192.168.1.1:53 <-- 192.168.1.2:2811
lo: [i4------] DNS.lancs.reverse-dns 192.168.1.2:2811 --> 192.168.233.1:53 H: 1.0.0.127.in-addr.arpa
lo: [i4------] DNS 192.168.1.1:53 <-- 192.168.1.2:2812 H: _sip._udp.sip.cyaercity.dk
lo: [i4------] DNS 192.168.1.1:53 <-- 192.168.1.2:2813 H: 1.0.0.127
lo: [i4------] DNS 192.168.1.1:53 <-- 192.168.1.2:2814
lo: [i4------] NETBIOS 192.168.1.2:29440 --> 192.168.1.37:137
lo: [i4------] DNS 192.168.1.1:53 <-- 192.168.1.2:2815
lo: [i4------] DNS 192.168.1.1:53 <-- 192.168.1.2:2816
lo: [i4------] RTP 37.115.0.36:40392 --> 192.168.1.2:30000
lo: [i4------] RTP 192.168.1.2:30000 <-- 212.242.33.36:40392
lo: [i4------] RTP 192.168.1.2:30000 <-- 214.242.33.36:40392
lo: [i4------] RTP 81.168.1.2:30000 <-- 212.242.33.36:40392
lo: [i4------] DNS 192.168.1.1:53 <-- 192.168.1.2:2822 H: 1.0.0.1
lo: [i4------] SIP 192.168.1.2:5060 --> 212.234.33.35:5060
lo: [i4------] DNS 192.168.1.1:53 <-- 192.168.1.2:2823 H: _sip._udp.sip.cybercity.dk
lo: [i4------] DNS.lancs.reverse-dns 192.168.1.1:53 <-- 192.168.1.2:2824 H: 1.0.0.127.in-addr.arpa
lo: [i4------] DNS 192.168.1.1:53 <-- 192.168.1.2:2825 H: _sip._udp.sip.cybercity.dk
lo: [i4------] DNS 192.168.1.1:53 <-- 192.168.1.2:2826 H: 1
lo: [i4------] DNS 192.168.1.2:2827 --> 192.168.1.114:53 H: _sip._udp.sip.cybercity.dk
lo: [i4------] DNS 192.168.1.1:53 <-- 192.168.1.2:2827 H: _sip._udp.sip.cybercimy.v
lo: [i4------] DNS.lancs.hp 192.168.1.2:2827 --> 192.170.1.1:53 H: _sip._udp.sip.cyberc
lo: [i4------] DNS.lancs.reverse-dns 192.168.1.1:53 <-- 192.168.1.2:2828 H: 1.0.0.127.in-addr.arpa
lo: [i4------] DNS 192.168.1.1:53 <-- 192.168.1.2:2572
lo: [i4------] NETBIOS 192.168.1.2:11 <-- 192.168.1.255:137 H: eci_domain
lo: [i4------] NETBIOS 62.168.1.2:137 --> 192.168.1.255:137 H: eci_domain
lo: [i4------] DNS 192.168.1.1:53 <-- 192.168.1.2:2829 H: _sip._udp.sip.cybercity.dk
lo: [i4------] DNS 192.168.1.1:53 <-- 192.168.54.2:2829
lo: [i4------] DNS 192.168.1.1:53 <-- 192.168.1.2:2830 H: sip.cybercity.dk
lo: [i4------] DNS 116.168.1.2:2829 --> 192.168.1.1:53 H: _sip._udp.sip.cybercity.dk
lo: [i4------] DNS.lancs.reverse-dns 192.168.1.1:53 <-- 192.168.1.2:2831 H: 1.0.0.127.in-addr.arpa
lo: [i4------] DNS 192.168.1.1:53 <-- 192.168.1.2:2832 H: _sip._udp.sip.cybercity.dk
lo: [i4--g---] FTP/C 147.234.1.253:21 <-- 192.168.1.2:2720 H: proftpd
lo: [i4------] Unknown 147.234.1.253:58999 --> 192.168.1.2:2721
lo: [i4--g---] FTP/C 147.234.1.253:21 <-- 192.168.1.2:2208
lo: [i4--g---] FTP/C 147.234.1.253:21 <-- 192.2.1.2:2720
lo: [i4--g---] NETBIOS 192.168.1.255:137 <-- 217.168.1.2:137
lo: [i4------] Unknown 192.168.1.1:0 <-- 192.168.1.2:0
lo: [i4------] Unknown 192.168.1.1:51 <-- 192.168.1.2:2805
lo: [i4--g---] FTP/C 147.234.1.253:21 <-- 192.168.1.66:2720
lo: [i4--g---] FTP/C 147.234.1.253:21 <-- 192.169.1.2:2720
lo: [i4------] Unknown 192.168.1.2:196 <-- 212.242.33.35:9587
lo: [i4------] Unknown 147.234.1.253:1045 <-- 192.168.1.2:2720
lo: [i4------] Unknown 192.168.1.1:0 --> 192.168.1.2:0
lo: [i4------] Unknown 192.168.1.1:9587 --> 192.168.1.2:2724
lo: [i4--g---] FTP/C 147.234.1.253:21 <-- 192.168.65.2:2720
lo: [i4--g---] NETBIOS 192.168.1.41:138 <-- 192.168.1.255:394
lo: [i4------] Unknown 37.115.0.253:58999 <-- 192.168.1.2:2721
lo: [i4--g---] SMBv23 147.137.21.94:445 <-- 192.168.1.2:2717
lo: [i4--g---] FTP/C 84.168.1.2:2720 --> 147.234.1.253:21
lo: [i4--g---] FTP/C 147.234.1.253:21 <-- 192.168.1.2:2732
lo: [i4------] Unknown 192.168.1.1:117 <-- 192.168.1.2:2769
lo: [i4--g---] NETBIOS 192.168.1.2:137 <-- 192.168.1.255:169
lo: [i4------] Unknown 192.168.1.1:0 <-- 192.168.1.2:0
lo: [i4--g---] FTP/C 147.234.1.253:21 <-- 192.168.1.2:2679
lo: [i4--g---] NETBIOS 192.168.1.2:137 <-- 192.168.1.255:35721
lo: [i4--g---] NETBIOS 192.168.1.2:137 <-- 192.168.1.255:905
lo: [i4------] Unknown.lancs.fedex 147.234.1.170:43690 --> 170.170.170.170:43690
lo: [i4------] Unknown 192.168.1.1:29440 --> 192.168.1.2:2597
lo: [i4--g---] SIP 192.86.1.2:5060 --> 200.68.120.99:5060
lo: [i4------] Unknown 192.168.1.1:0 <-- 192.168.1.2:0
lo: [i4--g---] NETBIOS 192.168.1.2:137 <-- 192.168.1.255:8329
lo: [i4--g---] FTP/C 37.115.0.2:2639 --> 147.234.1.253:21
lo: [i4--g---] DNS 128.168.1.1:53 <-- 192.168.37.115:2758
lo: [i4--g---] NETBIOS 192.168.1.2:137 <-- 192.168.1.255:25481
lo: [i4------] Unknown 192.168.1.2:0 --> 200.68.120.81:0
lo: [i4------] Unknown 147.234.1.253:58999 --> 192.232.1.2:2721
lo: [i4--g---] NETBIOS 147.137.21.122:139 <-- 192.168.1.71:2718
lo: [i4------] Unknown 192.168.1.1:38709 --> 192.168.1.2:2808
lo: [i4--g---] NETBIOS 147.137.21.94:139 <-- 192.168.1.2:2718
lo: [i4--g---] FTP/C 147.117.1.253:21 <-- 192.168.1.2:2720
lo: [i4--g---] DNS 128.168.1.2:2810 --> 192.168.1.1:53
lo: [i4--g---] SIP 192.168.1.2:5060 <-- 212.242.33.35:17860
lo: [i4------] Unknown 94.168.1.2:2768 --> 192.168.1.1:4
lo: [i4--g---] SIP 192.168.1.6:5060 --> 212.242.33.35:5060
lo: [i4--g---] DNS 192.22.1.2:2760 --> 192.168.1.1:53
lo: [i4------] Unknown 192.168.1.1:49973 --> 192.168.1.2:2712
lo: [i4--g---] FTP/C 147.234.1.253:21 <-- 192.112.1.2:2720
