lo: [i4------] DHCP 0.0.0.0:68 --> 255.255.255.255:67 H: lucas-imac
lo: [i4------] DNS.lancs.apple-itunes 192.168.2.1:53 <-- 192.168.2.17:60793 H: e673.dsce9.akamaiedge.net
lo: [i4------] HTTP/S.lancs.apple-itunes 23.57.24.16:443 <-- 192.168.2.17:57018 H: itunes.apple.com SSL C: itunes.apple.com
lo: [i4-u----] HTTP/S.lancs.apple-itunes 23.57.24.16:443 <-- 192.168.2.17:57018 H: itunes.apple.com SSL C: itunes.apple.com
lo: [i4------] HTTP/S.lancs.signal 34.225.240.173:443 <-- 192.168.2.17:49226 H: textsecure-service.whispersystems.org SSL C: textsecure-service.whispersystems.org
lo: [i4------] HTTP/S.lancs.signal 34.225.240.173:443 <-- 192.168.2.17:57019 H: textsecure-service.whispersystems.org SSL C: textsecure-service.whispersystems.org
lo: [i4------] HTTP/S.lancs.signal 34.225.240.173:443 <-- 192.168.2.17:57021 H: textsecure-service.whispersystems.org SSL C: textsecure-service.whispersystems.org
lo: [i4------] HTTP/S.lancs.signal 34.225.240.173:443 <-- 192.168.2.17:57020 H: textsecure-service.whispersystems.org SSL C: textsecure-service.whispersystems.org
lo: [i4-u----] HTTP/S.lancs.signal 34.225.240.173:443 <-- 192.168.2.17:49226 H: textsecure-service.whispersystems.org SSL C: textsecure-service.whispersystems.org
lo: [i4-u----] HTTP/S.lancs.signal 34.225.240.173:443 <-- 192.168.2.17:49226 H: textsecure-service.whispersystems.org SSL C: textsecure-service.whispersystems.org
lo: [i4-u----] HTTP/S.lancs.signal 34.225.240.173:443 <-- 192.168.2.17:57019 H: textsecure-service.whispersystems.org SSL C: textsecure-service.whispersystems.org
lo: [i4-u----] HTTP/S.lancs.signal 34.225.240.173:443 <-- 192.168.2.17:57021 H: textsecure-service.whispersystems.org SSL C: textsecure-service.whispersystems.org
lo: [i4-u----] HTTP/S.lancs.signal 34.225.240.173:443 <-- 192.168.2.17:57020 H: textsecure-service.whispersystems.org SSL C: textsecure-service.whispersystems.org
lo: [i4------] HTTP/S.lancs.apple 17.248.146.144:443 <-- 192.168.2.17:56996
lo: [i4------] HTTP/S 2.18.232.118:443 <-- 192.168.2.17:57017
lo: [i4------] DNS.lancs.signal 192.168.2.1:53 <-- 192.168.2.17:56263 H: textsecure-service.whispersystems.org
lo: [i4------] ICMP 192.168.2.1:0 <-- 192.168.2.17:0
lo: [i4------] HTTP/S.lancs.apple-itunes 23.57.24.16:443 <-- 192.168.2.17:57022 H: itunes.apple.com SSL C: itunes.apple.com
lo: [i4-u----] HTTP/S.lancs.apple-itunes 23.57.24.16:443 <-- 192.168.2.17:57022 H: itunes.apple.com SSL C: itunes.apple.com
lo: [i4------] HTTP/S.lancs.signal 35.169.3.40:443 <-- 192.168.2.17:49227 H: textsecure-service.whispersystems.org SSL C: textsecure-service.whispersystems.org
lo: [i4------] HTTP/S.lancs.signal 35.169.3.40:443 <-- 192.168.2.17:57023 H: textsecure-service.whispersystems.org SSL C: textsecure-service.whispersystems.org
lo: [i4------] HTTP/S.lancs.signal 35.169.3.40:443 <-- 192.168.2.17:57024 H: textsecure-service.whispersystems.org SSL C: textsecure-service.whispersystems.org
lo: [i4------] HTTP/S.lancs.signal 35.169.3.40:443 <-- 192.168.2.17:57025 H: textsecure-service.whispersystems.org SSL C: textsecure-service.whispersystems.org
lo: [i4-u----] HTTP/S.lancs.signal 35.169.3.40:443 <-- 192.168.2.17:49227 H: textsecure-service.whispersystems.org SSL C: textsecure-service.whispersystems.org
lo: [i4-u----] HTTP/S.lancs.signal 35.169.3.40:443 <-- 192.168.2.17:49227 H: textsecure-service.whispersystems.org SSL C: textsecure-service.whispersystems.org
lo: [i4-u----] HTTP/S.lancs.signal 35.169.3.40:443 <-- 192.168.2.17:57023 H: textsecure-service.whispersystems.org SSL C: textsecure-service.whispersystems.org
lo: [i4-u----] HTTP/S.lancs.signal 35.169.3.40:443 <-- 192.168.2.17:57025 H: textsecure-service.whispersystems.org SSL C: textsecure-service.whispersystems.org
lo: [i4-u----] HTTP/S.lancs.signal 35.169.3.40:443 <-- 192.168.2.17:57024 H: textsecure-service.whispersystems.org SSL C: textsecure-service.whispersystems.org
lo: [i4------] HTTP/S.lancs.signal 35.169.3.40:443 <-- 192.168.2.17:57026 H: textsecure-service.whispersystems.org SSL C: textsecure-service.whispersystems.org
lo: [i4-u----] HTTP/S.lancs.signal 35.169.3.40:443 <-- 192.168.2.17:57026 H: textsecure-service.whispersystems.org SSL C: textsecure-service.whispersystems.org
lo: [i4------] HTTP/S 23.57.24.16:443 <-- 192.168.2.17:57016
lo: [i4------] HTTP/S.lancs.signal 13.35.253.42:443 <-- 192.168.2.17:57027 H: cdn.signal.org SSL C: cdn.signal.org
lo: [i4-u----] HTTP/S.lancs.signal 13.35.253.42:443 <-- 192.168.2.17:57027 H: cdn.signal.org SSL C: cdn.signal.org
