lo: [i4-----s] NTP.lancs.ntp 10.8.0.1:46214 --> 200.89.75.198:123
lo: [i4------] HTTP 10.8.0.1:54915 --> 65.39.128.135:80 H: xtra1.gpsonextra.net
lo: [i4------] HTTP.lancs.waze 10.8.0.1:45529 --> 54.230.227.172:80 H: roadshields.waze.com
lo: [i4------] HTTP/S 10.8.0.1:36100 --> 46.51.173.182:443
lo: [i4------] HTTP/S.lancs.google 10.8.0.1:36585 --> 173.194.118.48:443
lo: [i4------] HTTP/S 10.8.0.1:36102 --> 46.51.173.182:443
lo: [i4-u----] HTTP/S.lancs.google 10.8.0.1:36585 --> 173.194.118.48:443
lo: [i4------] HTTP.lancs.waze 10.8.0.1:45536 --> 54.230.227.172:80 H: cres.waze.com
lo: [i4-u----] HTTP/S 10.8.0.1:36102 --> 46.51.173.182:443
lo: [i4-u----] HTTP/S 10.8.0.1:36100 --> 46.51.173.182:443
lo: [i4-u----] HTTP/S 10.8.0.1:36102 --> 46.51.173.182:443
lo: [i4------] HTTP.lancs.waze 10.8.0.1:45538 --> 54.230.227.172:80 H: cres.waze.com
lo: [i4------] HTTP.lancs.waze 10.8.0.1:45540 --> 54.230.227.172:80 H: roadshields.waze.com
lo: [i4------] HTTP/S 10.8.0.1:51049 --> 176.34.103.105:443
lo: [i4------] HTTP/S 10.8.0.1:51050 --> 176.34.103.105:443
lo: [i4------] HTTP/S 10.8.0.1:51051 --> 176.34.103.105:443
lo: [i4------] HTTP/S 10.8.0.1:39010 --> 52.17.114.219:443
lo: [i4------] HTTP.lancs.waze 10.8.0.1:45546 --> 54.230.227.172:80 H: cres.waze.com
lo: [i4------] HTTP.lancs.waze 10.8.0.1:45552 --> 54.230.227.172:80 H: cres.waze.com
lo: [i4-u----] HTTP/S 10.8.0.1:51051 --> 176.34.103.105:443
lo: [i4-u----] HTTP/S 10.8.0.1:51049 --> 176.34.103.105:443
lo: [i4-u----] HTTP/S 10.8.0.1:39010 --> 52.17.114.219:443
lo: [i4------] HTTP.lancs.waze 10.8.0.1:45554 --> 54.230.227.172:80 H: cres.waze.com
lo: [i4-u----] HTTP/S 10.8.0.1:51050 --> 176.34.103.105:443
lo: [i4-u----] HTTP/S 10.8.0.1:51051 --> 176.34.103.105:443
lo: [i4-u----] HTTP/S 10.8.0.1:51050 --> 176.34.103.105:443
lo: [i4-u----] HTTP/S 10.8.0.1:51049 --> 176.34.103.105:443
lo: [i4------] HTTP/S 10.8.0.1:39021 --> 52.17.114.219:443
lo: [i4-u----] HTTP/S 10.8.0.1:39021 --> 52.17.114.219:443
lo: [i4-u----] HTTP/S 10.8.0.1:39021 --> 52.17.114.219:443
lo: [i4------] HTTP/S 10.8.0.1:36312 --> 176.34.186.180:443
lo: [i4-u----] HTTP/S 10.8.0.1:36312 --> 176.34.186.180:443
lo: [i4-u----] HTTP/S 10.8.0.1:36312 --> 176.34.186.180:443
lo: [i4------] HTTP/S 10.8.0.1:36314 --> 176.34.186.180:443
lo: [i4-u----] HTTP/S 10.8.0.1:36314 --> 176.34.186.180:443
lo: [i4-u----] HTTP/S 10.8.0.1:36314 --> 176.34.186.180:443
lo: [i4------] HTTP/S 10.8.0.1:36316 --> 176.34.186.180:443
lo: [i4-u----] HTTP/S 10.8.0.1:36316 --> 176.34.186.180:443
lo: [i4------] HTTP/S 10.8.0.1:36134 --> 46.51.173.182:443
lo: [i4-u----] HTTP/S 10.8.0.1:36134 --> 46.51.173.182:443
lo: [i4------] WhatsApp 10.8.0.1:50828 --> 108.168.176.228:443
lo: [i4------] HTTP/S 10.8.0.1:36137 --> 46.51.173.182:443
lo: [i4-u----] HTTP/S 10.8.0.1:36137 --> 46.51.173.182:443
lo: [i4-u----] HTTP/S 10.8.0.1:36137 --> 46.51.173.182:443
lo: [i4--g---] HTTP 10.16.37.157:52746 --> 200.160.4.49:80
lo: [i4--g---] HTTP 10.16.37.157:41823 --> 200.160.4.49:80
lo: [i4--g---] HTTP 10.8.0.1:60574 --> 200.160.4.49:80
lo: [i4--g---] HTTP 10.16.37.157:46473 --> 200.160.4.49:80
lo: [i4--g---] HTTP/S 10.8.0.1:60479 --> 200.160.4.49:443
lo: [i4--g---] HTTP 10.16.37.157:52953 --> 200.160.4.49:80
lo: [i4--g---] HTTP 10.8.0.1:45169 --> 200.160.4.198:80
lo: [i4------] Unknown 10.16.37.157:42256 --> 174.37.231.81:5222
lo: [i4--g---] HTTP/S 10.8.0.1:43089 --> 200.160.4.198:443
lo: [i4--g---] HTTP 10.16.37.157:43991 --> 200.160.4.31:80
