Guessed flow protos:	1

DPI Packets (TCP):	49	(16.33 pkts/flow)
Confidence Unknown          : 1 (flows)
Confidence DPI              : 2 (flows)
Num dissector calls: 636 (212.00 diss/flow)
LRU cache ookla:      0/0/0 (insert/search/found)
LRU cache bittorrent: 0/0/0 (insert/search/found)
LRU cache zoom:       0/0/0 (insert/search/found)
LRU cache stun:       0/0/0 (insert/search/found)
LRU cache tls_cert:   0/0/0 (insert/search/found)
LRU cache mining:     0/0/0 (insert/search/found)
LRU cache msteams:    0/0/0 (insert/search/found)
Automa host:          0/0 (search/found)
Automa domain:        0/0 (search/found)
Automa tls cert:      0/0 (search/found)
Automa risk mask:     0/0 (search/found)
Automa common alpns:  0/0 (search/found)
Patricia risk mask:   6/0 (search/found)
Patricia risk:        0/0 (search/found)
Patricia protocols:   14/0 (search/found)

Unknown	1115	1122198	1
FTP_CONTROL	68	5571	1
FTP_DATA	9	1819	1

	1	TCP 192.168.1.212:50694 <-> 90.130.70.73:21 [proto: 1/FTP_CONTROL][ClearText][Confidence: DPI][cat: Download/7][41 pkts/2892 bytes <-> 27 pkts/2679 bytes][Goodput ratio: 6/33][8.48 sec][User: anonymous][Pwd: NcFTP@][bytes ratio: 0.038 (Mixed)][IAT c2s/s2c min/avg/max/stddev: 0/0 236/108 4743/1377 849/305][Pkt Len c2s/s2c min/avg/max/stddev: 66/66 71/99 96/307 7/45][Risk: ** Unsafe Protocol **** Clear-Text Credentials **][Risk Score: 110][Risk Info: Found FTP username (anonymous)][PLAIN TEXT (vsFTPd 3.0.3)][Plen Bins: 74,18,5,0,0,0,0,2,0,0,0,0,0,0,0,0,0,0,0,0,0,0,0,0,0,0,0,0,0,0,0,0,0,0,0,0,0,0,0,0,0,0,0,0,0,0,0,0]
	2	TCP 192.168.1.212:50695 <-> 90.130.70.73:25685 [proto: 175/FTP_DATA][ClearText][Confidence: DPI][cat: Download/7][5 pkts/342 bytes <-> 4 pkts/1477 bytes][Goodput ratio: 0/82][0.09 sec][bytes ratio: -0.624 (Download)][IAT c2s/s2c min/avg/max/stddev: 0/28 14/28 29/29 14/0][Pkt Len c2s/s2c min/avg/max/stddev: 66/66 68/369 78/1271 5/521][Risk: ** Known Proto on Non Std Port **][Risk Score: 50][PLAIN TEXT (    1 0        0        1073741)][Plen Bins: 0,0,0,0,0,0,0,0,0,0,0,0,0,0,0,0,0,0,0,0,0,0,0,0,0,0,0,0,0,0,0,0,0,0,0,0,0,100,0,0,0,0,0,0,0,0,0,0]


Undetected flows:
	1	TCP 192.168.1.212:50696 <-> 90.130.70.73:24523 [proto: 0/Unknown][ClearText][Confidence: Unknown][380 pkts/25104 bytes <-> 735 pkts/1097094 bytes][Goodput ratio: 0/96][0.33 sec][bytes ratio: -0.955 (Download)][IAT c2s/s2c min/avg/max/stddev: 0/0 0/0 29/29 2/2][Pkt Len c2s/s2c min/avg/max/stddev: 66/66 66/1493 78/1506 1/135][Plen Bins: 0,0,0,0,0,0,0,0,0,0,0,0,0,0,0,0,0,0,0,0,0,0,0,0,0,0,0,0,0,0,0,0,0,0,0,0,0,0,0,0,0,0,0,0,0,100,0,0]
