Guessed flow protos:	0

DPI Packets (TCP):	2	(2.00 pkts/flow)
DPI Packets (UDP):	1	(1.00 pkts/flow)
Confidence DPI              : 2 (flows)
Num dissector calls: 124 (62.00 diss/flow)
LRU cache ookla:      0/0/0 (insert/search/found)
LRU cache bittorrent: 0/0/0 (insert/search/found)
LRU cache zoom:       0/0/0 (insert/search/found)
LRU cache stun:       0/0/0 (insert/search/found)
LRU cache tls_cert:   0/0/0 (insert/search/found)
LRU cache mining:     0/0/0 (insert/search/found)
LRU cache msteams:    0/0/0 (insert/search/found)
Automa host:          0/0 (search/found)
Automa domain:        0/0 (search/found)
Automa tls cert:      0/0 (search/found)
Automa risk mask:     0/0 (search/found)
Automa common alpns:  0/0 (search/found)
Patricia risk mask:   4/0 (search/found)
Patricia risk:        4/0 (search/found)
Patricia protocols:   6/6 (search/found)

H323	12	1825	2

	1	UDP 17.2.0.124:2034 <-> 17.2.0.161:1719 [proto: 158/H323][ClearText][Confidence: DPI][cat: VoIP/10][3 pkts/665 bytes <-> 7 pkts/853 bytes][Goodput ratio: 81/65][80.21 sec][bytes ratio: -0.124 (Mixed)][IAT c2s/s2c min/avg/max/stddev: 247/336 288/13362 330/70142 42/25418][Pkt Len c2s/s2c min/avg/max/stddev: 80/67 222/122 411/176 139/48][PLAIN TEXT (@333333330)][Plen Bins: 20,20,10,10,30,0,0,0,0,0,0,10,0,0,0,0,0,0,0,0,0,0,0,0,0,0,0,0,0,0,0,0,0,0,0,0,0,0,0,0,0,0,0,0,0,0,0,0]
	2	TCP 17.2.0.124:3032 <-> 17.2.0.122:1720 [proto: 158/H323][ClearText][Confidence: DPI][cat: VoIP/10][1 pkts/207 bytes <-> 1 pkts/100 bytes][Goodput ratio: 74/46][0.06 sec][PLAIN TEXT (5295672)][Plen Bins: 0,50,0,0,50,0,0,0,0,0,0,0,0,0,0,0,0,0,0,0,0,0,0,0,0,0,0,0,0,0,0,0,0,0,0,0,0,0,0,0,0,0,0,0,0,0,0,0]
