Guessed flow protos:	12

DPI Packets (TCP):	265	(8.83 pkts/flow)
DPI Packets (UDP):	10	(1.43 pkts/flow)
DPI Packets (other):	1	(1.00 pkts/flow)
Confidence Unknown          : 1 (flows)
Confidence Match by port    : 6 (flows)
Confidence Match by IP      : 1 (flows)
Confidence DPI              : 30 (flows)
Num dissector calls: 1823 (47.97 diss/flow)
LRU cache ookla:      0/0/0 (insert/search/found)
LRU cache bittorrent: 0/0/0 (insert/search/found)
LRU cache zoom:       0/0/0 (insert/search/found)
LRU cache stun:       0/0/0 (insert/search/found)
LRU cache tls_cert:   0/0/0 (insert/search/found)
LRU cache mining:     0/0/0 (insert/search/found)
LRU cache msteams:    0/0/0 (insert/search/found)
Automa host:          36/36 (search/found)
Automa domain:        25/0 (search/found)
Automa tls cert:      0/0 (search/found)
Automa risk mask:     1/0 (search/found)
Automa common alpns:  0/0 (search/found)
Patricia risk mask:   70/0 (search/found)
Patricia risk:        0/0 (search/found)
Patricia protocols:   128/33 (search/found)

Unknown	1	66	1
HTTP	116	91784	6
ICMP	5	510	1
TLS	2	169	1
Facebook	251	215986	5
Dropbox	5	725	2
Instagram	3062	2617399	22

JA3 Host Stats: 
		 IP Address                  	 # JA3C     
	1	 192.168.0.103            	 1      
	2	 192.168.2.17             	 2      


	1	TCP 192.168.2.17:49355 <-> 31.13.86.52:443 [proto: 91.211/TLS.Instagram][Encrypted][Confidence: DPI][cat: SocialNetwork/6][456 pkts/33086 bytes <-> 910 pkts/1277296 bytes][Goodput ratio: 9/95][14.29 sec][Hostname/SNI: scontent-mxp1-1.cdninstagram.com][ALPN: http/1.1][TLS Supported Versions: TLSv1.3;TLSv1.3 (Fizz)][bytes ratio: -0.950 (Download)][IAT c2s/s2c min/avg/max/stddev: 0/0 38/1 10107/274 547/12][Pkt Len c2s/s2c min/avg/max/stddev: 66/66 73/1404 657/1454 57/231][Risk: ** Malicious JA3 Fingerp. **][Risk Score: 50][Risk Info: 7a29c223fb122ec64d10f0a159e07996][TLSv1.3 (Fizz)][JA3C: 7a29c223fb122ec64d10f0a159e07996][JA3S: f4febc55ea12b31ae17cfb7e614afda8][Cipher: TLS_AES_128_GCM_SHA256][Plen Bins: 0,0,0,0,0,0,1,0,0,0,0,0,0,0,0,0,0,0,0,0,0,0,0,0,0,0,0,0,0,0,0,0,0,0,0,0,0,0,0,0,0,0,0,98,0,0,0,0]
	2	TCP 192.168.2.17:49358 <-> 31.13.86.52:443 [proto: 91.211/TLS.Instagram][Encrypted][Confidence: DPI][cat: SocialNetwork/6][165 pkts/14193 bytes <-> 223 pkts/295045 bytes][Goodput ratio: 23/95][13.54 sec][Hostname/SNI: scontent-mxp1-1.cdninstagram.com][ALPN: http/1.1][TLS Supported Versions: TLSv1.3;TLSv1.3 (Fizz)][bytes ratio: -0.908 (Download)][IAT c2s/s2c min/avg/max/stddev: 0/0 97/3 10201/155 909/18][Pkt Len c2s/s2c min/avg/max/stddev: 66/66 86/1323 654/1454 101/381][TLSv1.3 (Fizz)][JA3C: 44dab16d680ef93487bc16ad23b3ffb1][JA3S: fcb2d4d0991292272fcb1e464eedfd43][Cipher: TLS_AES_128_GCM_SHA256][Plen Bins: 0,2,1,0,0,0,0,0,0,0,0,0,0,0,0,0,1,0,1,0,0,0,0,0,1,0,0,0,0,0,0,0,0,0,0,0,0,0,0,0,0,0,0,93,0,0,0,0]
	3	TCP 192.168.2.17:49360 <-> 31.13.86.52:443 [proto: 91.211/TLS.Instagram][Encrypted][Confidence: DPI][cat: SocialNetwork/6][153 pkts/11644 bytes <-> 206 pkts/284089 bytes][Goodput ratio: 13/95][2.91 sec][Hostname/SNI: scontent-mxp1-1.cdninstagram.com][ALPN: http/1.1][TLS Supported Versions: TLSv1.3;TLSv1.3 (Fizz)][bytes ratio: -0.921 (Download)][IAT c2s/s2c min/avg/max/stddev: 0/0 23/0 2756/16 247/1][Pkt Len c2s/s2c min/avg/max/stddev: 66/66 76/1379 592/1454 68/296][TLSv1.3 (Fizz)][JA3C: 44dab16d680ef93487bc16ad23b3ffb1][JA3S: fcb2d4d0991292272fcb1e464eedfd43][Cipher: TLS_AES_128_GCM_SHA256][Plen Bins: 0,0,0,0,0,0,0,0,0,0,0,0,0,0,0,0,0,0,0,0,0,0,0,0,0,0,0,0,0,0,0,0,0,0,0,0,0,0,0,0,0,0,0,100,0,0,0,0]
	4	TCP 192.168.2.17:49359 <-> 31.13.86.52:443 [proto: 91.211/TLS.Instagram][Encrypted][Confidence: DPI][cat: SocialNetwork/6][102 pkts/9950 bytes <-> 128 pkts/160484 bytes][Goodput ratio: 32/95][13.53 sec][Hostname/SNI: scontent-mxp1-1.cdninstagram.com][ALPN: http/1.1][TLS Supported Versions: TLSv1.3;TLSv1.3 (Fizz)][bytes ratio: -0.883 (Download)][IAT c2s/s2c min/avg/max/stddev: 0/0 168/2 10403/51 1193/6][Pkt Len c2s/s2c min/avg/max/stddev: 66/66 98/1254 637/1454 123/450][TLSv1.3 (Fizz)][JA3C: 44dab16d680ef93487bc16ad23b3ffb1][JA3S: fcb2d4d0991292272fcb1e464eedfd43][Cipher: TLS_AES_128_GCM_SHA256][Plen Bins: 2,1,0,0,0,0,0,0,0,0,0,0,0,0,0,0,3,0,0,1,1,0,0,0,0,0,0,0,0,0,0,0,0,0,0,0,0,0,0,0,0,0,0,91,0,0,0,0]
	5	TCP 192.168.2.17:49361 <-> 31.13.86.52:443 [proto: 91.211/TLS.Instagram][Encrypted][Confidence: DPI][cat: SocialNetwork/6][92 pkts/7098 bytes <-> 120 pkts/162114 bytes][Goodput ratio: 14/95][2.91 sec][Hostname/SNI: scontent-mxp1-1.cdninstagram.com][ALPN: http/1.1][TLS Supported Versions: TLSv1.3;TLSv1.3 (Fizz)][bytes ratio: -0.916 (Download)][IAT c2s/s2c min/avg/max/stddev: 0/0 36/1 2657/131 305/13][Pkt Len c2s/s2c min/avg/max/stddev: 66/66 77/1351 592/1454 69/348][TLSv1.3 (Fizz)][JA3C: 44dab16d680ef93487bc16ad23b3ffb1][JA3S: fcb2d4d0991292272fcb1e464eedfd43][Cipher: TLS_AES_128_GCM_SHA256][Plen Bins: 0,0,0,0,0,0,0,0,0,0,0,0,0,0,0,0,0,0,0,0,0,0,0,0,0,0,0,0,0,0,0,0,0,0,0,0,0,0,0,0,0,0,0,100,0,0,0,0]
	6	TCP 31.13.86.52:80 <-> 192.168.0.103:58216 [proto: 7.119/HTTP.Facebook][ClearText][Confidence: Match by IP][cat: SocialNetwork/6][103 pkts/150456 bytes <-> 47 pkts/3102 bytes][Goodput ratio: 95/0][1.71 sec][bytes ratio: 0.960 (Upload)][IAT c2s/s2c min/avg/max/stddev: 0/0 19/41 1246/1247 137/217][Pkt Len c2s/s2c min/avg/max/stddev: 1128/66 1461/66 1464/66 33/0][PLAIN TEXT (dnlN/L)][Plen Bins: 0,0,0,0,0,0,0,0,0,0,0,0,0,0,0,0,0,0,0,0,0,0,0,0,0,0,0,0,0,0,0,0,0,0,0,0,0,0,0,0,0,0,0,100,0,0,0,0]
	7	TCP 192.168.2.17:49357 <-> 31.13.86.52:443 [proto: 91.211/TLS.Instagram][Encrypted][Confidence: DPI][cat: SocialNetwork/6][63 pkts/6340 bytes <-> 81 pkts/100966 bytes][Goodput ratio: 34/95][13.54 sec][Hostname/SNI: scontent-mxp1-1.cdninstagram.com][ALPN: http/1.1][TLS Supported Versions: TLSv1.3;TLSv1.3 (Fizz)][bytes ratio: -0.882 (Download)][IAT c2s/s2c min/avg/max/stddev: 0/0 263/164 10413/10469 1493/1278][Pkt Len c2s/s2c min/avg/max/stddev: 66/66 101/1246 663/1454 128/466][TLSv1.3 (Fizz)][JA3C: 44dab16d680ef93487bc16ad23b3ffb1][JA3S: fcb2d4d0991292272fcb1e464eedfd43][Cipher: TLS_AES_128_GCM_SHA256][Plen Bins: 1,1,1,1,0,1,1,0,0,0,0,0,0,1,0,0,2,0,2,0,0,0,0,0,2,0,0,0,0,0,0,0,0,0,0,0,0,0,0,0,1,0,0,85,0,0,0,0]
	8	TCP 192.168.0.103:38816 <-> 46.33.70.160:80 [proto: 7.211/HTTP.Instagram][ClearText][Confidence: DPI][cat: SocialNetwork/6][13 pkts/1118 bytes <-> 39 pkts/57876 bytes][Goodput ratio: 23/96][0.07 sec][Hostname/SNI: photos-h.ak.instagram.com][bytes ratio: -0.962 (Download)][IAT c2s/s2c min/avg/max/stddev: 0/0 6/0 33/2 11/1][Pkt Len c2s/s2c min/avg/max/stddev: 66/1484 86/1484 326/1484 69/0][URL: photos-h.ak.instagram.com/hphotos-ak-xap1/t51.2885-15/e35/10859994_1009433792434447_1627646062_n.jpg?se=7][StatusCode: 200][User-Agent: Instagram 7.1.1 Android (19/4.4.2; 480dpi; 1080x1920; samsung; GT-I9505; jflte; qcom; it_IT)][PLAIN TEXT (GET /hphotos)][Plen Bins: 0,0,0,0,0,0,0,0,2,0,0,0,0,0,0,0,0,0,0,0,0,0,0,0,0,0,0,0,0,0,0,0,0,0,0,0,0,0,0,0,0,0,0,0,97,0,0,0]
	9	TCP 192.168.0.103:58052 <-> 82.85.26.162:80 [proto: 7.211/HTTP.Instagram][ClearText][Confidence: DPI][cat: SocialNetwork/6][37 pkts/2702 bytes <-> 38 pkts/54537 bytes][Goodput ratio: 10/95][0.09 sec][Hostname/SNI: photos-g.ak.instagram.com][bytes ratio: -0.906 (Download)][IAT c2s/s2c min/avg/max/stddev: 0/0 2/0 62/2 11/1][Pkt Len c2s/s2c min/avg/max/stddev: 66/396 73/1435 326/1484 42/210][URL: photos-g.ak.instagram.com/hphotos-ak-xaf1/t51.2885-15/e35/11417349_1610424452559638_1559096152_n.jpg?se=7][StatusCode: 200][User-Agent: Instagram 7.1.1 Android (19/4.4.2; 480dpi; 1080x1920; samsung; GT-I9505; jflte; qcom; it_IT)][PLAIN TEXT (GET /hphotos)][Plen Bins: 0,0,0,0,0,0,0,0,2,0,2,0,0,0,0,0,0,0,0,0,2,0,0,0,0,0,0,0,0,0,0,0,0,0,0,0,0,0,0,0,0,0,0,0,93,0,0,0]
	10	TCP 192.168.0.103:44379 <-> 82.85.26.186:80 [proto: 7.211/HTTP.Instagram][ClearText][Confidence: DPI][cat: SocialNetwork/6][41 pkts/3392 bytes <-> 40 pkts/50024 bytes][Goodput ratio: 15/95][7.88 sec][Hostname/SNI: photos-e.ak.instagram.com][bytes ratio: -0.873 (Download)][IAT c2s/s2c min/avg/max/stddev: 0/0 244/12 7254/372 1261/66][Pkt Len c2s/s2c min/avg/max/stddev: 66/66 83/1251 325/1484 56/507][URL: photos-e.ak.instagram.com/hphotos-ak-xaf1/t51.2885-15/e35/11379148_1449120228745316_607477962_n.jpg?se=7][StatusCode: 0][User-Agent: Instagram 7.1.1 Android (19/4.4.2; 480dpi; 1080x1920; samsung; GT-I9505; jflte; qcom; it_IT)][PLAIN TEXT (GET /hphotos)][Plen Bins: 2,0,9,0,0,0,2,0,4,0,0,0,0,0,0,0,0,0,0,0,0,0,0,0,0,0,0,0,0,0,0,0,0,0,0,0,0,0,0,0,0,0,0,0,82,0,0,0]
	11	TCP 192.168.0.103:57936 <-> 82.85.26.162:80 [proto: 7.211/HTTP.Instagram][ClearText][Confidence: DPI][cat: SocialNetwork/6][24 pkts/1837 bytes <-> 34 pkts/48383 bytes][Goodput ratio: 14/95][0.51 sec][Hostname/SNI: photos-g.ak.instagram.com][bytes ratio: -0.927 (Download)][IAT c2s/s2c min/avg/max/stddev: 0/0 28/0 321/2 76/1][Pkt Len c2s/s2c min/avg/max/stddev: 66/186 77/1423 319/1484 51/249][URL: photos-g.ak.instagram.com/hphotos-ak-xaf1/t51.2885-15/e15/11386524_110257619317430_379513654_n.jpg][StatusCode: 200][User-Agent: Instagram 7.1.1 Android (19/4.4.2; 480dpi; 1080x1920; samsung; GT-I9505; jflte; qcom; it_IT)][PLAIN TEXT (GET /hphotos)][Plen Bins: 0,0,0,2,0,0,0,2,0,0,0,0,0,0,0,0,0,0,0,0,0,2,0,0,0,0,0,0,0,0,0,0,0,0,0,0,0,0,0,0,0,0,0,2,91,0,0,0]
	12	TCP 192.168.0.103:33936 <-> 31.13.93.52:443 [proto: 91.119/TLS.Facebook][Encrypted][Confidence: DPI][cat: SocialNetwork/6][34 pkts/5555 bytes <-> 34 pkts/40133 bytes][Goodput ratio: 60/94][10.06 sec][bytes ratio: -0.757 (Download)][IAT c2s/s2c min/avg/max/stddev: 0/0 364/362 7669/7709 1462/1472][Pkt Len c2s/s2c min/avg/max/stddev: 66/66 163/1180 1431/1464 318/495][Plen Bins: 0,0,0,0,5,0,0,0,0,0,0,0,0,0,0,0,2,0,0,2,0,0,0,2,0,0,0,0,0,5,0,2,0,0,0,0,0,0,2,0,0,0,2,76,0,0,0,0]
	13	TCP 2.22.236.51:80 <-> 192.168.0.103:44151 [proto: 7/HTTP][ClearText][Confidence: Match by port][cat: Web/5][25 pkts/37100 bytes <-> 24 pkts/1584 bytes][Goodput ratio: 96/0][0.04 sec][bytes ratio: 0.918 (Upload)][IAT c2s/s2c min/avg/max/stddev: 0/0 1/1 7/7 2/2][Pkt Len c2s/s2c min/avg/max/stddev: 1484/66 1484/66 1484/66 0/0][PLAIN TEXT (inOCIM)][Plen Bins: 0,0,0,0,0,0,0,0,0,0,0,0,0,0,0,0,0,0,0,0,0,0,0,0,0,0,0,0,0,0,0,0,0,0,0,0,0,0,0,0,0,0,0,0,100,0,0,0]
	14	TCP 192.168.0.103:33976 <-> 77.67.29.17:80 [proto: 7/HTTP][ClearText][Confidence: Match by port][cat: Web/5][14 pkts/924 bytes <-> 20 pkts/28115 bytes][Goodput ratio: 0/95][7.36 sec][bytes ratio: -0.936 (Download)][IAT c2s/s2c min/avg/max/stddev: 0/0 735/0 7321/3 2195/1][Pkt Len c2s/s2c min/avg/max/stddev: 66/66 66/1406 66/1484 0/309][PLAIN TEXT (dGQaNFV)][Plen Bins: 0,0,0,0,0,0,0,0,0,0,0,0,0,0,0,0,0,0,0,0,0,0,0,0,0,0,0,0,0,0,0,0,0,0,0,0,0,0,0,5,0,0,0,0,94,0,0,0]
	15	TCP 92.122.48.138:80 <-> 192.168.0.103:41562 [proto: 7/HTTP][ClearText][Confidence: Match by port][cat: Web/5][16 pkts/22931 bytes <-> 9 pkts/594 bytes][Goodput ratio: 95/0][0.02 sec][bytes ratio: 0.950 (Upload)][IAT c2s/s2c min/avg/max/stddev: 0/0 1/1 5/4 1/1][Pkt Len c2s/s2c min/avg/max/stddev: 671/66 1433/66 1484/66 197/0][PLAIN TEXT (DD.DOo)][Plen Bins: 0,0,0,0,0,0,0,0,0,0,0,0,0,0,0,0,0,0,6,0,0,0,0,0,0,0,0,0,0,0,0,0,0,0,0,0,0,0,0,0,0,0,0,0,93,0,0,0]
	16	TCP 192.168.0.103:60908 <-> 46.33.70.136:443 [proto: 91.211/TLS.Instagram][Encrypted][Confidence: DPI][cat: SocialNetwork/6][10 pkts/1369 bytes <-> 9 pkts/7971 bytes][Goodput ratio: 51/92][0.19 sec][Hostname/SNI: igcdn-photos-g-a.akamaihd.net][bytes ratio: -0.707 (Download)][IAT c2s/s2c min/avg/max/stddev: 0/0 19/23 56/88 18/31][Pkt Len c2s/s2c min/avg/max/stddev: 66/66 137/886 375/1484 114/640][Risk: ** Obsolete TLS (v1.1 or older) **][Risk Score: 100][Risk Info: TLSv1][TLSv1][JA3C: 54ae5fcb0159e2ddf6a50e149221c7c7][ServerNames: a248.e.akamai.net,*.akamaihd.net,*.akamaihd-staging.net,*.akamaized.net,*.akamaized-staging.net][JA3S: 34d6f0ad0a79e4cfdf145e640cc93f78][Issuer: C=NL, L=Amsterdam, O=Verizon Enterprise Solutions, OU=Cybertrust, CN=Verizon Akamai SureServer CA G14-SHA1][Subject: C=US, ST=MA, L=Cambridge, O=Akamai Technologies Inc., CN=a248.e.akamai.net][Certificate SHA-1: EA:5A:20:95:78:D7:09:60:5C:A1:E4:CA:A5:2B:BD:C1:78:FB:23:23][Validity: 2015-06-19 16:52:07 - 2016-06-19 16:52:05][Cipher: TLS_ECDHE_RSA_WITH_AES_256_CBC_SHA][Plen Bins: 0,0,0,0,10,10,0,0,20,10,0,0,0,0,0,0,0,0,0,0,0,0,0,0,0,0,0,0,0,0,0,0,0,0,0,0,0,0,0,10,0,0,0,0,40,0,0,0]
	17	TCP 192.168.0.103:44558 <-> 46.33.70.174:443 [proto: 91.211/TLS.Instagram][Encrypted][Confidence: DPI][cat: SocialNetwork/6][10 pkts/1545 bytes <-> 7 pkts/4824 bytes][Goodput ratio: 57/90][0.17 sec][Hostname/SNI: igcdn-photos-h-a.akamaihd.net][bytes ratio: -0.515 (Download)][IAT c2s/s2c min/avg/max/stddev: 0/0 21/29 79/103 25/38][Pkt Len c2s/s2c min/avg/max/stddev: 66/66 154/689 516/1484 151/647][Risk: ** Obsolete TLS (v1.1 or older) **][Risk Score: 100][Risk Info: TLSv1][TLSv1][JA3C: 54ae5fcb0159e2ddf6a50e149221c7c7][ServerNames: a248.e.akamai.net,*.akamaihd.net,*.akamaihd-staging.net,*.akamaized.net,*.akamaized-staging.net][JA3S: 7df57c06f869fc3ce509521cae2f75ce][Issuer: C=NL, L=Amsterdam, O=Verizon Enterprise Solutions, OU=Cybertrust, CN=Verizon Akamai SureServer CA G14-SHA1][Subject: C=US, ST=MA, L=Cambridge, O=Akamai Technologies Inc., CN=a248.e.akamai.net][Certificate SHA-1: EA:5A:20:95:78:D7:09:60:5C:A1:E4:CA:A5:2B:BD:C1:78:FB:23:23][Validity: 2015-06-19 16:52:07 - 2016-06-19 16:52:05][Cipher: TLS_ECDHE_RSA_WITH_AES_256_CBC_SHA][Plen Bins: 0,12,0,0,12,0,12,0,0,12,0,0,0,0,12,0,0,0,0,0,0,0,0,0,0,0,0,0,0,0,0,0,0,0,0,0,0,0,0,12,0,0,0,0,25,0,0,0]
	18	TCP 31.13.93.52:443 <-> 192.168.0.103:33934 [proto: 91.119/TLS.Facebook][Encrypted][Confidence: DPI][cat: SocialNetwork/6][6 pkts/4699 bytes <-> 6 pkts/1345 bytes][Goodput ratio: 92/71][2.36 sec][bytes ratio: 0.555 (Upload)][IAT c2s/s2c min/avg/max/stddev: 0/0 590/590 2180/2130 921/894][Pkt Len c2s/s2c min/avg/max/stddev: 66/66 783/224 1464/1015 545/354][Plen Bins: 0,0,0,0,16,0,0,0,0,0,0,0,0,0,0,0,0,0,0,16,0,0,0,16,0,0,0,0,0,16,0,0,0,0,0,0,0,0,0,0,0,0,0,34,0,0,0,0]
	19	TCP 192.168.0.103:41181 <-> 82.85.26.154:443 [proto: 91.211/TLS.Instagram][Encrypted][Confidence: DPI][cat: SocialNetwork/6][8 pkts/896 bytes <-> 6 pkts/4671 bytes][Goodput ratio: 40/91][0.16 sec][Hostname/SNI: igcdn-photos-a-a.akamaihd.net][bytes ratio: -0.678 (Download)][IAT c2s/s2c min/avg/max/stddev: 0/0 25/11 70/40 27/17][Pkt Len c2s/s2c min/avg/max/stddev: 66/66 112/778 292/1484 81/657][Risk: ** Obsolete TLS (v1.1 or older) **][Risk Score: 100][Risk Info: TLSv1][TLSv1][JA3C: 54ae5fcb0159e2ddf6a50e149221c7c7][ServerNames: a248.e.akamai.net,*.akamaihd.net,*.akamaihd-staging.net,*.akamaized.net,*.akamaized-staging.net][JA3S: 34d6f0ad0a79e4cfdf145e640cc93f78][Issuer: C=NL, L=Amsterdam, O=Verizon Enterprise Solutions, OU=Cybertrust, CN=Verizon Akamai SureServer CA G14-SHA1][Subject: C=US, ST=MA, L=Cambridge, O=Akamai Technologies Inc., CN=a248.e.akamai.net][Certificate SHA-1: EA:5A:20:95:78:D7:09:60:5C:A1:E4:CA:A5:2B:BD:C1:78:FB:23:23][Validity: 2015-06-19 16:52:07 - 2016-06-19 16:52:05][Cipher: TLS_ECDHE_RSA_WITH_AES_256_CBC_SHA][Plen Bins: 0,0,0,0,16,16,0,16,0,0,0,0,0,0,0,0,0,0,0,0,0,0,0,0,0,0,0,0,0,0,0,0,0,0,0,0,0,0,0,16,0,0,0,0,34,0,0,0]
	20	TCP 192.168.0.103:41182 <-> 82.85.26.154:443 [proto: 91.211/TLS.Instagram][Encrypted][Confidence: DPI][cat: SocialNetwork/6][8 pkts/896 bytes <-> 6 pkts/4671 bytes][Goodput ratio: 40/91][0.16 sec][Hostname/SNI: igcdn-photos-a-a.akamaihd.net][bytes ratio: -0.678 (Download)][IAT c2s/s2c min/avg/max/stddev: 0/0 26/12 71/47 27/20][Pkt Len c2s/s2c min/avg/max/stddev: 66/66 112/778 292/1484 81/657][Risk: ** Obsolete TLS (v1.1 or older) **][Risk Score: 100][Risk Info: TLSv1][TLSv1][JA3C: 54ae5fcb0159e2ddf6a50e149221c7c7][ServerNames: a248.e.akamai.net,*.akamaihd.net,*.akamaihd-staging.net,*.akamaized.net,*.akamaized-staging.net][JA3S: 34d6f0ad0a79e4cfdf145e640cc93f78][Issuer: C=NL, L=Amsterdam, O=Verizon Enterprise Solutions, OU=Cybertrust, CN=Verizon Akamai SureServer CA G14-SHA1][Subject: C=US, ST=MA, L=Cambridge, O=Akamai Technologies Inc., CN=a248.e.akamai.net][Certificate SHA-1: EA:5A:20:95:78:D7:09:60:5C:A1:E4:CA:A5:2B:BD:C1:78:FB:23:23][Validity: 2015-06-19 16:52:07 - 2016-06-19 16:52:05][Cipher: TLS_ECDHE_RSA_WITH_AES_256_CBC_SHA][Plen Bins: 0,0,0,0,16,16,0,16,0,0,0,0,0,0,0,0,0,0,0,0,0,0,0,0,0,0,0,0,0,0,0,0,0,0,0,0,0,0,0,16,0,0,0,0,34,0,0,0]
	21	TCP 192.168.0.103:33763 <-> 31.13.93.52:443 [proto: 91.119/TLS.Facebook][Encrypted][Confidence: DPI][cat: SocialNetwork/6][5 pkts/1279 bytes <-> 6 pkts/4118 bytes][Goodput ratio: 74/90][2.48 sec][bytes ratio: -0.526 (Download)][IAT c2s/s2c min/avg/max/stddev: 0/0 64/51 254/202 110/87][Pkt Len c2s/s2c min/avg/max/stddev: 66/66 256/686 1015/1464 380/610][Plen Bins: 0,0,0,0,20,0,0,0,0,0,0,0,0,0,0,0,0,0,0,0,0,0,0,0,20,0,0,0,0,20,0,0,0,0,0,0,0,0,0,0,0,0,0,40,0,0,0,0]
	22	TCP 192.168.0.103:33935 <-> 31.13.93.52:443 [proto: 91.119/TLS.Facebook][Encrypted][Confidence: DPI][cat: SocialNetwork/6][5 pkts/1279 bytes <-> 5 pkts/4020 bytes][Goodput ratio: 74/92][0.22 sec][bytes ratio: -0.517 (Download)][IAT c2s/s2c min/avg/max/stddev: 0/0 54/43 215/172 93/74][Pkt Len c2s/s2c min/avg/max/stddev: 66/66 256/804 1015/1464 380/595][Plen Bins: 0,0,0,0,20,0,0,0,0,0,0,0,0,0,0,0,0,0,0,0,0,0,0,20,0,0,0,0,0,20,0,0,0,0,0,0,0,0,0,0,0,0,0,40,0,0,0,0]
	23	TCP 192.168.0.103:57965 <-> 82.85.26.185:80 [proto: 7.211/HTTP.Instagram][ClearText][Confidence: DPI][cat: SocialNetwork/6][4 pkts/559 bytes <-> 3 pkts/3456 bytes][Goodput ratio: 46/94][0.18 sec][Hostname/SNI: photos-f.ak.instagram.com][bytes ratio: -0.722 (Download)][IAT c2s/s2c min/avg/max/stddev: 0/1 61/0 184/1 87/0][Pkt Len c2s/s2c min/avg/max/stddev: 78/488 140/1152 325/1484 107/470][URL: photos-f.ak.instagram.com/hphotos-ak-xfa1/t51.2885-15/e35/11424623_1608163109450421_663315883_n.jpg?se=7][StatusCode: 0][User-Agent: Instagram 7.1.1 Android (19/4.4.2; 480dpi; 1080x1920; samsung; GT-I9505; jflte; qcom; it_IT)][PLAIN TEXT (GET /hphotos)][Plen Bins: 0,0,0,0,0,0,0,0,25,0,0,0,0,25,0,0,0,0,0,0,0,0,0,0,0,0,0,0,0,0,0,0,0,0,0,0,0,0,0,0,0,0,0,0,50,0,0,0]
	24	TCP 192.168.0.103:56382 <-> 173.252.107.4:443 [proto: 91.211/TLS.Instagram][Encrypted][Confidence: DPI][cat: SocialNetwork/6][9 pkts/1583 bytes <-> 8 pkts/1064 bytes][Goodput ratio: 62/50][0.80 sec][Hostname/SNI: telegraph-ash.instagram.com][bytes ratio: 0.196 (Mixed)][IAT c2s/s2c min/avg/max/stddev: 0/0 94/80 183/182 82/81][Pkt Len c2s/s2c min/avg/max/stddev: 66/66 176/133 530/231 155/70][Risk: ** Obsolete TLS (v1.1 or older) **][Risk Score: 100][Risk Info: TLSv1][TLSv1][JA3C: 54ae5fcb0159e2ddf6a50e149221c7c7][JA3S: acb741bcdffb787c5a52654c78645bdf][Cipher: TLS_ECDHE_RSA_WITH_AES_128_CBC_SHA][Plen Bins: 0,12,12,0,25,12,12,12,0,0,0,0,0,0,12,0,0,0,0,0,0,0,0,0,0,0,0,0,0,0,0,0,0,0,0,0,0,0,0,0,0,0,0,0,0,0,0,0]
	25	UDP 192.168.0.106:17500 -> 255.255.255.255:17500 [proto: 121/Dropbox][ClearText][Confidence: DPI][cat: Cloud/13][4 pkts/580 bytes -> 0 pkts/0 bytes][Goodput ratio: 71/0][0.01 sec][PLAIN TEXT ( 413767116)][Plen Bins: 0,0,0,100,0,0,0,0,0,0,0,0,0,0,0,0,0,0,0,0,0,0,0,0,0,0,0,0,0,0,0,0,0,0,0,0,0,0,0,0,0,0,0,0,0,0,0,0]
	26	ICMP 192.168.0.103:0 -> 192.168.0.103:0 [proto: 81/ICMP][ClearText][Confidence: DPI][cat: Network/14][5 pkts/510 bytes -> 0 pkts/0 bytes][Goodput ratio: 59/0][2.67 sec][Risk: ** Unidirectional Traffic **][Risk Score: 10][Risk Info: No server to client traffic][Plen Bins: 0,100,0,0,0,0,0,0,0,0,0,0,0,0,0,0,0,0,0,0,0,0,0,0,0,0,0,0,0,0,0,0,0,0,0,0,0,0,0,0,0,0,0,0,0,0,0,0]
	27	UDP 192.168.0.103:51219 <-> 8.8.8.8:53 [proto: 5.211/DNS.Instagram][ClearText][Confidence: DPI][cat: SocialNetwork/6][1 pkts/89 bytes <-> 1 pkts/305 bytes][Goodput ratio: 52/86][0.05 sec][Hostname/SNI: igcdn-photos-h-a.akamaihd.net][46.33.70.174][PLAIN TEXT (photos)][Plen Bins: 0,50,0,0,0,0,0,0,50,0,0,0,0,0,0,0,0,0,0,0,0,0,0,0,0,0,0,0,0,0,0,0,0,0,0,0,0,0,0,0,0,0,0,0,0,0,0,0]
	28	TCP 192.168.0.103:37350 -> 82.85.26.153:80 [proto: 7.211/HTTP.Instagram][ClearText][Confidence: DPI][cat: SocialNetwork/6][1 pkts/324 bytes -> 0 pkts/0 bytes][Goodput ratio: 79/0][< 1 sec][Hostname/SNI: photos-a.ak.instagram.com][URL: photos-a.ak.instagram.com/hphotos-ak-xfa1/t51.2885-15/e35/11248829_853782121373976_909936934_n.jpg?se=7][StatusCode: 0][User-Agent: Instagram 7.1.1 Android (19/4.4.2; 480dpi; 1080x1920; samsung; GT-I9505; jflte; qcom; it_IT)][Risk: ** Unidirectional Traffic **][Risk Score: 10][Risk Info: No server to client traffic][PLAIN TEXT (GET /hphotos)][Plen Bins: 0,0,0,0,0,0,0,0,100,0,0,0,0,0,0,0,0,0,0,0,0,0,0,0,0,0,0,0,0,0,0,0,0,0,0,0,0,0,0,0,0,0,0,0,0,0,0,0]
	29	TCP 192.168.0.103:58053 -> 82.85.26.162:80 [proto: 7.211/HTTP.Instagram][ClearText][Confidence: DPI][cat: SocialNetwork/6][1 pkts/321 bytes -> 0 pkts/0 bytes][Goodput ratio: 79/0][< 1 sec][Hostname/SNI: photos-g.ak.instagram.com][URL: photos-g.ak.instagram.com/hphotos-ak-xfa1/t51.2885-15/e35/11379284_1651416798408214_1525641466_n.jpg][StatusCode: 0][User-Agent: Instagram 7.1.1 Android (19/4.4.2; 480dpi; 1080x1920; samsung; GT-I9505; jflte; qcom; it_IT)][Risk: ** Unidirectional Traffic **][Risk Score: 10][Risk Info: No server to client traffic][PLAIN TEXT (GET /hphotos)][Plen Bins: 0,0,0,0,0,0,0,100,0,0,0,0,0,0,0,0,0,0,0,0,0,0,0,0,0,0,0,0,0,0,0,0,0,0,0,0,0,0,0,0,0,0,0,0,0,0,0,0]
	30	UDP 192.168.0.103:26540 <-> 8.8.8.8:53 [proto: 5.211/DNS.Instagram][ClearText][Confidence: DPI][cat: SocialNetwork/6][1 pkts/89 bytes <-> 1 pkts/209 bytes][Goodput ratio: 52/80][0.05 sec][Hostname/SNI: igcdn-photos-g-a.akamaihd.net][46.33.70.136][PLAIN TEXT (photos)][Plen Bins: 0,50,0,0,0,50,0,0,0,0,0,0,0,0,0,0,0,0,0,0,0,0,0,0,0,0,0,0,0,0,0,0,0,0,0,0,0,0,0,0,0,0,0,0,0,0,0,0]
	31	UDP 192.168.0.103:33603 <-> 8.8.8.8:53 [proto: 5.211/DNS.Instagram][ClearText][Confidence: DPI][cat: SocialNetwork/6][1 pkts/89 bytes <-> 1 pkts/209 bytes][Goodput ratio: 52/80][0.05 sec][Hostname/SNI: igcdn-photos-a-a.akamaihd.net][82.85.26.154][PLAIN TEXT (photos)][Plen Bins: 0,50,0,0,0,50,0,0,0,0,0,0,0,0,0,0,0,0,0,0,0,0,0,0,0,0,0,0,0,0,0,0,0,0,0,0,0,0,0,0,0,0,0,0,0,0,0,0]
	32	TCP 192.168.0.103:38817 <-> 46.33.70.160:80 [proto: 7/HTTP][ClearText][Confidence: Match by port][cat: Web/5][2 pkts/132 bytes <-> 1 pkts/66 bytes][Goodput ratio: 0/0][0.02 sec][Plen Bins: 0,0,0,0,0,0,0,0,0,0,0,0,0,0,0,0,0,0,0,0,0,0,0,0,0,0,0,0,0,0,0,0,0,0,0,0,0,0,0,0,0,0,0,0,0,0,0,0]
	33	TCP 192.168.0.103:57966 <-> 82.85.26.185:80 [proto: 7/HTTP][ClearText][Confidence: Match by port][cat: Web/5][2 pkts/132 bytes <-> 1 pkts/66 bytes][Goodput ratio: 0/0][0.04 sec][Plen Bins: 0,0,0,0,0,0,0,0,0,0,0,0,0,0,0,0,0,0,0,0,0,0,0,0,0,0,0,0,0,0,0,0,0,0,0,0,0,0,0,0,0,0,0,0,0,0,0,0]
	34	TCP 192.168.0.103:58690 -> 46.33.70.159:443 [proto: 91/TLS][Encrypted][Confidence: DPI][cat: Web/5][2 pkts/169 bytes -> 0 pkts/0 bytes][Goodput ratio: 22/0][< 1 sec][Risk: ** Unidirectional Traffic **][Risk Score: 10][Risk Info: No server to client traffic][Plen Bins: 0,100,0,0,0,0,0,0,0,0,0,0,0,0,0,0,0,0,0,0,0,0,0,0,0,0,0,0,0,0,0,0,0,0,0,0,0,0,0,0,0,0,0,0,0,0,0,0]
	35	UDP 192.168.0.106:17500 -> 192.168.0.255:17500 [proto: 121/Dropbox][ClearText][Confidence: DPI][cat: Cloud/13][1 pkts/145 bytes -> 0 pkts/0 bytes][Goodput ratio: 71/0][< 1 sec][PLAIN TEXT ( 413767116)][Plen Bins: 0,0,0,100,0,0,0,0,0,0,0,0,0,0,0,0,0,0,0,0,0,0,0,0,0,0,0,0,0,0,0,0,0,0,0,0,0,0,0,0,0,0,0,0,0,0,0,0]
	36	TCP 46.33.70.150:80 <-> 192.168.0.103:40855 [proto: 7/HTTP][ClearText][Confidence: Match by port][cat: Web/5][1 pkts/74 bytes <-> 1 pkts/66 bytes][Goodput ratio: 0/0][< 1 sec][Plen Bins: 0,0,0,0,0,0,0,0,0,0,0,0,0,0,0,0,0,0,0,0,0,0,0,0,0,0,0,0,0,0,0,0,0,0,0,0,0,0,0,0,0,0,0,0,0,0,0,0]
	37	UDP 192.168.0.103:27124 -> 8.8.8.8:53 [proto: 5.211/DNS.Instagram][ClearText][Confidence: DPI][cat: SocialNetwork/6][1 pkts/85 bytes -> 0 pkts/0 bytes][Goodput ratio: 50/0][< 1 sec][Hostname/SNI: photos-b.ak.instagram.com][::][Risk: ** Unidirectional Traffic **][Risk Score: 10][Risk Info: No server to client traffic][PLAIN TEXT (photos)][Plen Bins: 0,100,0,0,0,0,0,0,0,0,0,0,0,0,0,0,0,0,0,0,0,0,0,0,0,0,0,0,0,0,0,0,0,0,0,0,0,0,0,0,0,0,0,0,0,0,0,0]


Undetected flows:
	1	UDP 192.168.0.1:520 -> 192.168.0.255:520 [proto: 0/Unknown][ClearText][Confidence: Unknown][1 pkts/66 bytes -> 0 pkts/0 bytes][Goodput ratio: 36/0][< 1 sec][Plen Bins: 100,0,0,0,0,0,0,0,0,0,0,0,0,0,0,0,0,0,0,0,0,0,0,0,0,0,0,0,0,0,0,0,0,0,0,0,0,0,0,0,0,0,0,0,0,0,0,0]
