Guessed flow protos:	0

DPI Packets (TCP):	6	(6.00 pkts/flow)
DPI Packets (UDP):	5	(2.50 pkts/flow)
Confidence DPI              : 3 (flows)
Num dissector calls: 386 (128.67 diss/flow)
LRU cache ookla:      0/0/0 (insert/search/found)
LRU cache bittorrent: 0/0/0 (insert/search/found)
LRU cache zoom:       0/0/0 (insert/search/found)
LRU cache stun:       0/0/0 (insert/search/found)
LRU cache tls_cert:   0/0/0 (insert/search/found)
LRU cache mining:     0/0/0 (insert/search/found)
LRU cache msteams:    0/0/0 (insert/search/found)
Automa host:          0/0 (search/found)
Automa domain:        0/0 (search/found)
Automa tls cert:      0/0 (search/found)
Automa risk mask:     0/0 (search/found)
Automa common alpns:  0/0 (search/found)
Patricia risk mask:   6/0 (search/found)
Patricia risk:        0/0 (search/found)
Patricia protocols:   18/0 (search/found)

OpenVPN	298	57111	3

	1	UDP 192.168.43.18:13680 <-> 139.59.151.137:13680 [proto: 159/OpenVPN][Encrypted][Confidence: DPI][cat: VPN/2][62 pkts/11508 bytes <-> 58 pkts/16664 bytes][Goodput ratio: 77/85][19.24 sec][bytes ratio: -0.183 (Mixed)][IAT c2s/s2c min/avg/max/stddev: 0/0 289/106 3994/2456 764/365][Pkt Len c2s/s2c min/avg/max/stddev: 84/92 186/287 1214/1287 193/325][Risk: ** Known Proto on Non Std Port **][Risk Score: 50][Risk Info: No server to client traffic][PLAIN TEXT (160727093158Z)][Plen Bins: 0,33,19,9,29,0,0,2,1,1,0,0,0,0,0,0,0,0,0,0,0,0,0,0,0,0,0,0,0,0,0,0,0,0,1,0,0,1,1,0,0,0,0,0,0,0,0,0]
	2	TCP 192.168.1.77:60140 <-> 46.101.231.218:443 [proto: 159/OpenVPN][Encrypted][Confidence: DPI][cat: VPN/2][44 pkts/7514 bytes <-> 51 pkts/7866 bytes][Goodput ratio: 61/57][64.13 sec][bytes ratio: -0.023 (Mixed)][IAT c2s/s2c min/avg/max/stddev: 0/0 1298/1400 11356/11265 2924/3289][Pkt Len c2s/s2c min/avg/max/stddev: 66/66 171/154 1514/222 236/63][Risk: ** Known Proto on Non Std Port **][Risk Score: 50][Risk Info: Expected on port 1194][PLAIN TEXT (160630002150Z)][Plen Bins: 0,39,0,4,51,0,0,0,0,1,0,0,0,0,0,0,3,0,0,0,0,0,0,0,0,0,0,0,0,0,0,0,0,0,0,0,0,0,0,0,0,0,0,0,0,1,0,0]
	3	UDP 192.168.43.12:41507 <-> 139.59.151.137:13680 [proto: 159/OpenVPN][Encrypted][Confidence: DPI][cat: VPN/2][49 pkts/7860 bytes <-> 34 pkts/5699 bytes][Goodput ratio: 74/75][9.11 sec][bytes ratio: 0.159 (Mixed)][IAT c2s/s2c min/avg/max/stddev: 0/0 224/137 3857/2389 691/464][Pkt Len c2s/s2c min/avg/max/stddev: 84/92 160/168 1214/196 192/31][Risk: ** Known Proto on Non Std Port **][Risk Score: 50][PLAIN TEXT (160727093158Z)][Plen Bins: 0,40,14,8,30,2,0,0,0,1,0,0,0,0,1,0,0,0,0,0,0,0,0,1,0,0,0,0,0,0,0,0,0,0,0,0,1,0,0,0,0,0,0,0,0,0,0,0]
